{"hash":"05754d63fe96756e6a5182181aa8692e88e553af","data":{"works":{"totalCount":29,"pageInfo":{"totalPages":10,"currentPage":7,"isFirst":false,"isLast":false},"edges":[{"node":{"id":"41f81ff674a4a4b428f1a568f25aa4d2","title":"Multi-Threading Consideration for NinjaScript - NinjaTrader 8 Help Guide","URL":"https://ninjatrader.com/support/helpGuides/nt8/?multi-threading.htm","Stub":"NinjaScript was event-driven and multi-threaded, which meant that 3rd party C# developers needed to be aware of how to handle programming scenarios that sometimes needed to be dispatched between parallel threads.","path":"/work/multi-threading-consideration-for-ninja-script-ninja-trader-8-help-guide/","Company":"NinjaTrader LLC","Subject_Matter":"C#, Multi-threaded programming, NinjaScript"}},{"node":{"id":"334af3a1c6672c1218a087363c05d3df","title":"How Do I Upgrade to Speedtest Custom from NetGauge? – Ookla Speedtest Custom","URL":"https://support.ookla.com/hc/en-us/articles/115003486908-How-Do-I-Upgrade-to-Speedtest-Custom-from-NetGauge-","Stub":"Many of Ookla's licensed vendors were using the legacy Flash technology that was quickly becoming discontinued and blocked by security enhancements to major browsers. Our major effort involved helping ISPs and other networking vendors understand the new technology involved and provided high-level tutorials to help ensure that their plan to update their website would go as smoothly as possible.","path":"/work/how-do-i-upgrade-to-speedtest-custom-from-net-gauge-ookla-speedtest-custom/","Company":"Ookla (Speedtest.net)","Subject_Matter":"CSS, Cross-Origin Resource Sharing (CORS), HTML5, High-performance Browser Networking, JavaScript, SSL Certificates, Transport Layer Security (TLS), WebSockets, XHR"}},{"node":{"id":"a46a5d106d651d527d5b08424b5f87f4","title":"Hosting the HTML5 front-end Test UI on your site – Ookla Speedtest Custom","URL":"https://support.ookla.com/hc/en-us/articles/115001660712-Hosting-the-HTML5-front-end-Test-UI-on-your-site","Stub":"Since many of Ookla's customers were new to the concept of using a iframe hosted from another web server, we needed to build a template to assist users with building their own web pages that displayed the test content in an HTML5 friendly manner.","path":"/work/hosting-the-htm-l5-front-end-test-ui-on-your-site-ookla-speedtest-custom/","Company":"Ookla (Speedtest.net)","Subject_Matter":"HTML5"}}]}},"context":{}}