{"hash":"4833e14db6c8ee80b8ce057b6165ee594bc33e44","data":{"works":{"totalCount":29,"pageInfo":{"totalPages":10,"currentPage":1,"isFirst":true,"isLast":false},"edges":[{"node":{"id":"e2da5c03994d491813ef5a9053f6b543","title":"SuperDOM Column - NinjaTrader 8 Help Guide","URL":"https://ninjatrader.com/support/helpGuides/nt8/?superdom_column.htm","Stub":"A flagship order entry feature for day traders was enhanced to allow users to write custom add-ons using C# scripts that would interact with the WPF layouts provided by NinjaTrader. This is the API reference documentation to allow a user to start using these types.","path":"/work/super-dom-column-ninja-trader-8-help-guide/","Company":"NinjaTrader LLC","Subject_Matter":".NET, C#, NinjaScript, WPF"}},{"node":{"id":"c04adfeefc82b9645199b302bf725834","title":"Working with Pixel Coordinates - NinjaTrader 8 Help Guide","URL":"https://ninjatrader.com/support/helpGuides/nt8/?working_with_pixel_coordinates.htm","Stub":"To help support multiple device layouts and resolutions, 3rd party developers needed to be aware of the discrepancies that can occur between pixels and devices, as well as how to correct and prevent these issues from arising.","path":"/work/working-with-pixel-coordinates-ninja-trader-8-help-guide/","Company":"NinjaTrader LLC","Subject_Matter":".NET, C#, NinjaScript, WPF"}},{"node":{"id":"e9b74a2a42e0aa1a972206b582eb3d7c","title":"Working with Brushes - NinjaTrader 8 Help Guide","URL":"https://ninjatrader.com/support/helpGuides/nt8/?working_with_brushes.htm","Stub":"NinjaTrader used two different APIs for rending UI components, depending on the performance required. This often caused confusion between the types of .NET objects used for certain tasks, and also required a little bit of guidance to help developers understand some of the multi-threaded implications of using certain types across the life cycle of each object.","path":"/work/working-with-brushes-ninja-trader-8-help-guide/","Company":"NinjaTrader LLC","Subject_Matter":"NinjaScript, SharpDX (DirectX), WPF"}}]}},"context":{}}