{"hash":"cb766afb9264342687829c3541988bef9746cd2a","data":{"works":{"totalCount":29,"pageInfo":{"totalPages":10,"currentPage":5,"isFirst":false,"isLast":false},"edges":[{"node":{"id":"ef8c745d2524dda5c865cce2832c35df","title":"Software Product Management - NinjaTrader 8 Beta and Major Release","URL":"https://ninjatrader.com/support/helpGuides/nt8/beta_release_notes.htm","Stub":"I was promoted to Product Manager after working as a technical support lead for the NinjaTrader platform. When I was promoted, much of the early planning and specification was already completed, so I was brought on to help with the engineering implementation, user acceptance testing, and documentation up until the first major release of NinjaTrader 8 in November of 2016.","path":"/work/software-product-management-ninja-trader-8-beta-and-major-release/","Company":"NinjaTrader LLC","Subject_Matter":"NinjaTrader"}},{"node":{"id":"4ae2f9c9609c04823a9dcb72390ef814","title":"Share Service - NinjaTrader 8 Help Guide","URL":"https://ninjatrader.com/support/helpGuides/nt8/?share_service.htm","Stub":"NinjaTrader version 8 introduced a new class of objects that could be used to communicate to 3rd party APIs like Twitter, Facebook, or custom made to meet customer use cases. This was the API Reference that enabled a developer to start using this group of methods and types.","path":"/work/share-service-ninja-trader-8-help-guide/","Company":"NinjaTrader LLC","Subject_Matter":".NET, C#, NinjaScript, WPF"}},{"node":{"id":"a75cf4710927731d07d749d2022a7128","title":"CME Reduces Tick Size of EUR/USD Futures - NinjaTrader Blog","URL":"https://ninjatrader.com/blog/cme-reduces-tick-size-of-eurusd-futures-2/","Stub":"Between my time as a technical support lead and product manager, it was often my job to help catch wide-spread issues before they caused issues for the ecosystem of users. We often authored In Product Advisories that were also re-hosted on the NinjaTrader blog to assist in these scenarios. This is one example of the many advisories that I helped write and edit.","path":"/work/cme-reduces-tick-size-of-eur-usd-futures-ninja-trader-blog/","Company":"NinjaTrader LLC","Subject_Matter":"NinjaTrader"}}]}},"context":{}}