{"hash":"7b82b59fd6e02edc9092fbe72d81dadcfa59f692","data":{"works":{"totalCount":29,"pageInfo":{"totalPages":10,"currentPage":9,"isFirst":false,"isLast":false},"edges":[{"node":{"id":"7b51bfeda2876ea411d1070459bfb2eb","title":"Content Management - NinjaTrader 8 Help Guide","URL":"https://ninjatrader.com/support/helpGuides/nt8/?welcome.htm","Stub":"As a Product Manager for NinjaTrader, one of my core day to day responsibilities was maintaining the online help content aimed at an audience of both financial day traders and C# developers.","path":"/work/content-management-ninja-trader-8-help-guide/","Company":"NinjaTrader LLC","Subject_Matter":".NET, C#, CSS, HTML5, JavaScript, Multi-threaded programming, NinjaScript, WPF"}},{"node":{"id":"97195e83543f9b64b92bdf024989df88","title":"Code Breaking Changes - NinjaTrader 8 Help Guide","URL":"https://ninjatrader.com/support/helpGuides/nt8/en-us/code_breaking_changes.htm","Stub":"One of my major assignments as a Product Manager for NinjaTrader was discovering and documenting many of the changes our community of 3rd party developers needed to use to convert their C# NinjaScript types from Version 7 to Version 8.","path":"/work/code-breaking-changes-ninja-trader-8-help-guide/","Company":"NinjaTrader LLC","Subject_Matter":".NET, C#, NinjaScript, WPF"}},{"node":{"id":"a75cf4710927731d07d749d2022a7128","title":"CME Reduces Tick Size of EUR/USD Futures - NinjaTrader Blog","URL":"https://ninjatrader.com/blog/cme-reduces-tick-size-of-eurusd-futures-2/","Stub":"Between my time as a technical support lead and product manager, it was often my job to help catch wide-spread issues before they caused issues for the ecosystem of users. We often authored In Product Advisories that were also re-hosted on the NinjaTrader blog to assist in these scenarios. This is one example of the many advisories that I helped write and edit.","path":"/work/cme-reduces-tick-size-of-eur-usd-futures-ninja-trader-blog/","Company":"NinjaTrader LLC","Subject_Matter":"NinjaTrader"}}]}},"context":{}}