{"hash":"d4b2adf74aaeb6f0a960e6f6ee8cc75c2af3ca4d","data":{"works":{"totalCount":29,"pageInfo":{"totalPages":10,"currentPage":4,"isFirst":false,"isLast":false},"edges":[{"node":{"id":"1aaa141f21dad4520c1123e143c5a6b3","title":"Unable to verify HTTPS server configuration – Ookla Speedtest Custom","URL":"https://support.ookla.com/hc/en-us/articles/115003334412-Unable-to-verify-HTTPS-server-configuration","Stub":"To support the latest browser security protocols, it was important that vendors follow guidelines to ensure their server networking software could pass the routine security monitoring watchdog process developed by Ookla.","path":"/work/unable-to-verify-https-server-configuration-ookla-speedtest-custom/","Company":"Ookla (Speedtest.net)","Subject_Matter":"HTTPS, SSL Certificates, Transport Layer Security (TLS)"}},{"node":{"id":"e2da5c03994d491813ef5a9053f6b543","title":"SuperDOM Column - NinjaTrader 8 Help Guide","URL":"https://ninjatrader.com/support/helpGuides/nt8/?superdom_column.htm","Stub":"A flagship order entry feature for day traders was enhanced to allow users to write custom add-ons using C# scripts that would interact with the WPF layouts provided by NinjaTrader. This is the API reference documentation to allow a user to start using these types.","path":"/work/super-dom-column-ninja-trader-8-help-guide/","Company":"NinjaTrader LLC","Subject_Matter":".NET, C#, NinjaScript, WPF"}},{"node":{"id":"ef8c745d2524dda5c865cce2832c35df","title":"Software Product Management - NinjaTrader 8 Beta and Major Release","URL":"https://ninjatrader.com/support/helpGuides/nt8/beta_release_notes.htm","Stub":"I was promoted to Product Manager after working as a technical support lead for the NinjaTrader platform. When I was promoted, much of the early planning and specification was already completed, so I was brought on to help with the engineering implementation, user acceptance testing, and documentation up until the first major release of NinjaTrader 8 in November of 2016.","path":"/work/software-product-management-ninja-trader-8-beta-and-major-release/","Company":"NinjaTrader LLC","Subject_Matter":"NinjaTrader"}}]}},"context":{}}