{"hash":"4833e14db6c8ee80b8ce057b6165ee594bc33e44","data":{"works":{"totalCount":29,"pageInfo":{"totalPages":10,"currentPage":2,"isFirst":false,"isLast":false},"edges":[{"node":{"id":"2c660dce84bd882f69559d866b797fee","title":"What's New in NinjaTrader 8 - NinjaTrader 8 Help Guide","URL":"https://ninjatrader.com/support/helpGuides/nt8/whats_new.htm","Stub":"My first assignment as a Jr. Product Manager for NinjaTrader was to compile, review, and publish technical copy for marketing teams to tease content to users eagerly waiting for the milestone release of NinjaTrader version 8. Much of the technical copy used in this document is being reused by NinjaTrader's marketing team in the form of Tweets and Blog content.","path":"/work/what-s-new-in-ninja-trader-8-ninja-trader-8-help-guide/","Company":"NinjaTrader LLC","Subject_Matter":"NinjaTrader"}},{"node":{"id":"80f4fea9d8f6e8533e447153f22b221a","title":"Video Library - NinjaTrader 8 Help Guide","URL":"https://ninjatrader.com/support/helpGuides/nt8/?video_library.htm","Stub":"One of the primary goals of the new NinjaTrader 8 help guide was to make it media-rich and user-friendly. Where possible, we tried to include videos to help users understand software operation concepts and tutorials. I was involved with planning and writing many of the scripts that were used in our collection of videos, and was also responsible for updating the help guide with the video content as each new video was released. This page shows an overview list of all the videos available through the help guide.","path":"/work/video-library-ninja-trader-8-help-guide/","Company":"NinjaTrader LLC","Subject_Matter":"Day trading, NinjaTrader"}},{"node":{"id":"696495c58ea450c6c8deb3925a8cdbb7","title":"Using browser networking tools to troubleshoot client-side errors – Ookla Speedtest Custom","URL":"https://support.ookla.com/hc/en-us/articles/115002059132-Using-browser-networking-tools-to-troubleshoot-client-side-errors","Stub":"As Ookla release the beta version of their HTML5 client, many of their customers (networking engineers) had trouble understanding how to debug and troubleshoot unexpected results. We used this opportunity to teach these users about the built-in DevTool's Networking features that are often overlooked.","path":"/work/using-browser-networking-tools-to-troubleshoot-client-side-errors-ookla-speedtest-custom/","Company":"Ookla (Speedtest.net)","Subject_Matter":"Chrome DevTools, Firefox DevTools, High-performance Browser Networking, JavaScript, WebSockets, XHR"}}]}},"context":{}}