{"hash":"4833e14db6c8ee80b8ce057b6165ee594bc33e44","data":{"works":{"totalCount":29,"pageInfo":{"totalPages":10,"currentPage":10,"isFirst":false,"isLast":true},"edges":[{"node":{"id":"ffc56abb7c3aadc33e682df6385ea9d1","title":"Attach to Indicator - NinjaTrader 8 Help Guide","URL":"https://ninjatrader.com/support/helpGuides/nt8/?charttrader_attachtoindicator.htm","Stub":"One of the major enhancements to NinjaTrader 8 was the ability to attach a live market order to be updated automatically by a 3rd party script (without needing to know how to program). This was a simple operation guide to introduce users to the platform features.","path":"/work/attach-to-indicator-ninja-trader-8-help-guide/","Company":"NinjaTrader LLC","Subject_Matter":"Day trading, NinjaTrader"}},{"node":{"id":"4ae2f9c9609c04823a9dcb72390ef814","title":"Share Service - NinjaTrader 8 Help Guide","URL":"https://ninjatrader.com/support/helpGuides/nt8/?share_service.htm","Stub":"NinjaTrader version 8 introduced a new class of objects that could be used to communicate to 3rd party APIs like Twitter, Facebook, or custom made to meet customer use cases. This was the API Reference that enabled a developer to start using this group of methods and types.","path":"/work/share-service-ninja-trader-8-help-guide/","Company":"NinjaTrader LLC","Subject_Matter":".NET, C#, NinjaScript, WPF"}}]}},"context":{}}