{"hash":"4833e14db6c8ee80b8ce057b6165ee594bc33e44","data":{"works":{"totalCount":29,"pageInfo":{"totalPages":10,"currentPage":3,"isFirst":false,"isLast":false},"edges":[{"node":{"id":"742d1ec2da1584b7c180e2cfd0f4238d","title":"Using SharpDX for Custom Chart Rendering - NinjaTrader 8 Help Guide","URL":"https://ninjatrader.com/support/helpGuides/nt8/?using_sharpdx_for_custom_chart_rendering.htm","Stub":"NinjaTrader 8 Charts used a .NET Library called SharpDX that worked with the native Microsoft DirectX API. This was a major overhaul from the previously used GDI namespace and in efforts to help provide better for support for custom chart rendering, I was tasked with designing a tutorial to help users understand the new information that came along with the updated requirements.","path":"/work/using-sharp-dx-for-custom-chart-rendering-ninja-trader-8-help-guide/","Company":"NinjaTrader LLC","Subject_Matter":"SharpDX (DirectX)"}},{"node":{"id":"e0b0f87a6334f8d029b8ce4dce73e08b","title":"Using 3rd Party Add-ons  - NinjaTrader 8 Help Guide","URL":"https://ninjatrader.com/support/helpGuides/nt8/?using_3rd_party_add-ons.htm","Stub":"Since NinjaTrader 8 exposed low-level access to core platform technologies, it sometimes left a risk for users to install scripts that could introduce instability or insecurity to their platform. This was an informational guide to help make users aware of the risks of installing 3rd party add-ons and how to deal with some of the common issues as a result.","path":"/work/using-3rd-party-add-ons-ninja-trader-8-help-guide/","Company":"NinjaTrader LLC","Subject_Matter":"NinjaScript, NinjaTrader"}},{"node":{"id":"42e557868f98bbaaf3f4343486c24c6c","title":"Updating your NetGauge site to host the STC test – Ookla Speedtest Custom","URL":"https://support.ookla.com/hc/en-us/articles/115001650351-Updating-your-NetGauge-site-to-host-the-STC-test","Stub":"The client-side technology used to execute and host a test on a customer's website was completely rehauled and required a different approach to get similar results on the client's site. We worked to make this process as simple as possible for users who were used to a more complicated approach to hosting the test engine.","path":"/work/updating-your-net-gauge-site-to-host-the-stc-test-ookla-speedtest-custom/","Company":"Ookla (Speedtest.net)","Subject_Matter":"CSS, HTML5"}}]}},"context":{}}