{"hash":"ab7db730fd16b62f063489d3ee68d874c73ed4fe","data":{"works":{"totalCount":29,"pageInfo":{"totalPages":10,"currentPage":8,"isFirst":false,"isLast":false},"edges":[{"node":{"id":"d1ac64909406d04487620b62502e91a1","title":"Drawing Tools - NinjaTrader 8 Help Guide","URL":"https://ninjatrader.com/support/helpGuides/nt8/?drawing_tools.htm","Stub":"When looking at technical financial data, it's common to need to annotate certain data points on the chart that can be saved and shared for others - we took this approach one step further and extended access to our class of \"Drawing Tools\" to allow users to develop unique drawing tools, building off the concepts we designed to implement the standard set of tools that came with the platform. This was the API Reference that enabled a developer to start using this group of methods and types.","path":"/work/drawing-tools-ninja-trader-8-help-guide/","Company":"NinjaTrader LLC","Subject_Matter":".NET, C#, SharpDX (DirectX)"}},{"node":{"id":"712d0196a6f3a4178624250e5371e7fe","title":"Ensuring your OoklaServer allows Speedtest Custom domains – Ookla Speedtest Custom","URL":"https://support.ookla.com/hc/en-us/articles/115002976711-Ensuring-your-OoklaServer-allows-Speedtest-Custom-domains","Stub":"The Javascript client used with Ookla's Speedtest Custom often required updating server side configurations to help ensure that resources accepted or rejected connections from certain domains and that connections were testing using the preferred API as optimized for reach browser.","path":"/work/ensuring-your-ookla-server-allows-speedtest-custom-domains-ookla-speedtest-custom/","Company":"Ookla (Speedtest.net)","Subject_Matter":"C++, Cross-Origin Resource Sharing (CORS), High-performance Browser Networking"}},{"node":{"id":"dcbfa423db5742a6f3ed851c55329205","title":"Compatibility of your existing NetGauge OoklaServer Daemon – Ookla Speedtest Custom","URL":"https://support.ookla.com/hc/en-us/articles/115001656232-Compatibility-of-your-existing-NetGauge-OoklaServer-Daemon","Stub":"To ensure network software was compatible with the latest JavaScript client technology, Ookla's database of licensed vendors needed to update the server-side component hosted in their network. Since it was not always possible to remotely verify each instance due to vendor side networking security limitations, we provided a tutorial to help manually check the version on the server.","path":"/work/compatibility-of-your-existing-net-gauge-ookla-server-daemon-ookla-speedtest-custom/","Company":"Ookla (Speedtest.net)","Subject_Matter":"C++, High-performance Browser Networking, SSL Certificates"}}]}},"context":{}}